<!--

      Copyright 2018, Cordite Foundation.

       Licensed under the Apache License, Version 2.0 (the "License");
       you may not use this file except in compliance with the License.
       You may obtain a copy of the License at

         http://www.apache.org/licenses/LICENSE-2.0

       Unless required by applicable law or agreed to in writing, software
       distributed under the License is distributed on an "AS IS" BASIS,
       WITHOUT WARRANTIES OR CONDITIONS OF ANY KIND, either express or implied.
       See the License for the specific language governing permissions and
       limitations under the License.

-->
@startuml

group separate-agreements
MeteringNotaryGreen -> MeteringNotaryRed:  FeeSplitAgreement, split fees 80/20 ?
MeteringNotaryRed -> MeteringNotaryGreen : Sounds good, I approve
BusinessNode -> MeteringNotaryRed : Send me metering FeeChargeAgreement
MeteringNotaryRed -> BusinessNode : I propose We charge 10 XTS per txn with 2 split to Guardian
BusinessNode -> MeteringNotaryRed : Sounds cool, I approve, lets do it.
FeeDispersalNode -> MeteringNotaryRed: What about my fee?
note left : does not work as FeeDispersal node knows nothing about it

end group

group shared agreement
MeteringNotaryGreen -> MeteringNotaryRed:  FeeSplitAgreement, Green 80, Approved, Red 20 Proposed
MeteringNotaryRed -> MeteringNotaryGreen : FeeSplitAgreement, Green 80 Approved, Red 20 Approved
BusinessNode -> MeteringNotaryGreen : Request Metering Agreement
MeteringNotaryGreen -> BusinessNode : MeteringAgreement XTS, 10, Guardian Red proposed
group approve metering agreement
BusinessNode -> MeteringNotaryGreen : MeteringAgreement TKN, 20, Guardian Red approved, Dispersal=Brown, BN fund 10, Cordite fund 10
BusinessNode -> FeeDispersalNode : MeteringAgreement TKN, 20, Guardian Red approved, Dispersal=Brown, BN fund 10, Cordite fund 10
MeteringNotaryGreen -> BusinessNode : MeteringAgreement Approved
FeeDispersalNode -> BusinessNode : MeteringAgreement Approved
end group

group is starter for 10
MeteringNotaryRed -> MeteringNotaryGreen : Propose Metering Agreement (Red
MeteringNotaryGreen -> MeteringNotaryRed : Accept Metering Agreement
BusinessNode -> MeteringNotaryRed : Requests Metering Agreement
MeteringNotaryRed -> BusinessNode : Send Proposed Metering Agreement with Red/Green Split




end group



end group



@enduml